Text Mining with Tidy Data Principles - Text Mining
…
library(tidytext)

text_df %>%
    unnest_tokens(word, text)
#> # A tibble: 41 x 2
#>     line word   
#>    <int> <chr>  
#>  1     1 tell   
#>  2     1 all    
#>  3     1 the    
#>  4     1 truth  
#>  5     1 but    
#>  6     1 tell   
#>  7     1 it     
#>  8     1 slant  
#>  9     2 success
#> 10     2 in     
#> # ... with 31 more rows
…
What are the most common words?

What do you predict will happen if we run the following code? 🤔

tidy_book %>%
    count(word, sort = TRUE)

What are the most common words?

What do you predict will happen if we run the following code? 🤔

tidy_book %>%
    count(word, sort = TRUE)
#> # A tibble: 7,118 x 2
#>    word      n
#>    <chr> <int>
#>  1 the    4656
#>  2 to     4323
#>  3 of     3838
#>  4 and    3763
#>  5 her    2260
#>  6 i      2095
#>  7 a      2036
#>  8 in     1991
#>  9 was    1871
#> 10 she    1732
#> # ... with 7,108 more rows

Stop words

get_stopwords()
#> # A tibble: 175 x 2
#>    word      lexicon 
#>    <chr>     <chr>   
#>  1 i         snowball
#>  2 me        snowball
#>  3 my        snowball
#>  4 myself    snowball
#>  5 we        snowball
#>  6 our       snowball
#>  7 ours      snowball
#>  8 ourselves snowball
#>  9 you       snowball
#> 10 your      snowball
#> # ... with 165 more rows

Stop words

get_stopwords(language = "es")
#> # A tibble: 308 x 2
#>    word  lexicon 
#>    <chr> <chr>   
#>  1 de    snowball
#>  2 la    snowball
#>  3 que   snowball
#>  4 el    snowball
#>  5 en    snowball
#>  6 y     snowball
#>  7 a     snowball
#>  8 los   snowball
#>  9 del   snowball
#> 10 se    snowball
#> # ... with 298 more rows

Stop words

get_stopwords(language = "fr")
#> # A tibble: 164 x 2
#>    word  lexicon 
#>    <chr> <chr>   
#>  1 au    snowball
#>  2 aux   snowball
#>  3 avec  snowball
#>  4 ce    snowball
#>  5 ces   snowball
#>  6 dans  snowball
#>  7 de    snowball
#>  8 des   snowball
#>  9 du    snowball
#> 10 elle  snowball
#> # ... with 154 more rows

Stop words

get_stopwords(source = "smart")
#> # A tibble: 571 x 2
#>    word        lexicon
#>    <chr>       <chr>  
#>  1 a           smart  
#>  2 a's         smart  
#>  3 able        smart  
#>  4 about       smart  
#>  5 above       smart  
#>  6 according   smart  
#>  7 accordingly smart  
#>  8 across      smart  
#>  9 actually    smart  
#> 10 after       smart  
#> # ... with 561 more rows
…
journals <- rbind(journal_1871_1872, journal_1873, journal_1874, journal_1875)

Tidy Journals

library(lubridate)
(tidy_journal <- journals %>%
    select(date_mdy, month, journal_entry, journal) %>%
    mutate(date_mdy = mdy(date_mdy)) %>%
    mutate(year = year(date_mdy)) %>%
    unnest_tokens(word, journal_entry)  %>%
    mutate(word = case_when(word %in% c("reed", "read") ~ "received",
                            TRUE ~ word)))
#> # A tibble: 12,356 x 5
#>    date_mdy   month    journal  year word   
#>    <date>     <chr>      <dbl> <dbl> <chr>  
#>  1 1871-12-23 December       1  1871 was    
#>  2 1871-12-23 December       1  1871 married
#>  3 1871-12-23 December       1  1871 at     
#>  4 1871-12-23 December       1  1871 home   
#>  5 1871-12-23 December       1  1871 in     
#>  6 1871-12-23 December       1  1871 evening
#>  7 1871-12-23 December       1  1871 by     
#>  8 1871-12-23 December       1  1871 william
#>  9 1871-12-23 December       1  1871 rand   
#> 10 1871-12-23 December       1  1871 esqr   
#> # ... with 12,346 more rows

Most common words

tidy_journal %>%
    count(word, sort = TRUE)
#> # A tibble: 1,752 x 2
#>    word      n
#>    <chr> <int>
#>  1 the     860
#>  2 wind    519
#>  3 in      467
#>  4 to      454
#>  5 and     398
#>  6 at      365
#>  7 went    229
#>  8 work    182
#>  9 of      169
#> 10 for     164
#> # ... with 1,742 more rows
…
Your Turn: What were the most common words in Journal 3 and 4?

SENTIMENT ANALYSIS 
😄😢😠

Sentiment lexicons

get_sentiments("afinn")
#> # A tibble: 2,477 x 2
#>    word       value
#>    <chr>      <dbl>
#>  1 abandon       -2
#>  2 abandoned     -2
#>  3 abandons      -2
#>  4 abducted      -2
#>  5 abduction     -2
#>  6 abductions    -2
#>  7 abhor         -3
#>  8 abhorred      -3
#>  9 abhorrent     -3
#> 10 abhors        -3
#> # ... with 2,467 more rows

Sentiment lexicons

get_sentiments("bing")
#> # A tibble: 6,786 x 2
#>    word        sentiment
#>    <chr>       <chr>    
#>  1 2-faces     negative 
#>  2 abnormal    negative 
#>  3 abolish     negative 
#>  4 abominable  negative 
#>  5 abominably  negative 
#>  6 abominate   negative 
#>  7 abomination negative 
#>  8 abort       negative 
#>  9 aborted     negative 
#> 10 aborts      negative 
#> # ... with 6,776 more rows

Sentiment lexicons

get_sentiments("nrc")
#> # A tibble: 13,872 x 2
#>    word        sentiment
#>    <chr>       <chr>    
#>  1 abacus      trust    
#>  2 abandon     fear     
#>  3 abandon     negative 
#>  4 abandon     sadness  
#>  5 abandoned   anger    
#>  6 abandoned   fear     
#>  7 abandoned   negative 
#>  8 abandoned   sadness  
#>  9 abandonment anger    
#> 10 abandonment fear     
#> # ... with 13,862 more rows

Sentiment lexicons

get_sentiments("loughran")
#> # A tibble: 4,150 x 2
#>    word         sentiment
#>    <chr>        <chr>    
#>  1 abandon      negative 
#>  2 abandoned    negative 
#>  3 abandoning   negative 
#>  4 abandonment  negative 
#>  5 abandonments negative 
#>  6 abandons     negative 
#>  7 abdicated    negative 
#>  8 abdicates    negative 
#>  9 abdicating   negative 
#> 10 abdication   negative 
#> # ... with 4,140 more rows
…
What do you predict will happen if we run the following code? 🤔

tidy_book %>%
    inner_join(get_sentiments("bing")) %>%            
    count(sentiment, word, sort = TRUE) 

Implementing sentiment analysis

What do you predict will happen if we run the following code? 🤔

tidy_book %>%
    inner_join(get_sentiments("bing")) %>%            
    count(sentiment, word, sort = TRUE)   
#> # A tibble: 1,503 x 3
#>    sentiment word         n
#>    <chr>     <chr>    <int>
#>  1 negative  miss       315
#>  2 positive  well       230
#>  3 positive  good       208
#>  4 positive  great      148
#>  5 positive  enough     111
#>  6 positive  love       102
#>  7 positive  better      98
#>  8 positive  pleasure    94
#>  9 positive  like        89
#> 10 positive  happy       83
#> # ... with 1,493 more rows
…
Implementing sentiment analysis

tidy_journal %>%
    inner_join(get_sentiments("bing")) %>%            
    count(sentiment, word, sort = TRUE)   
#> # A tibble: 84 x 3
#>    sentiment word         n
#>    <chr>     <chr>    <int>
#>  1 positive  work       182
#>  2 negative  cold        45
#>  3 positive  good        36
#>  4 positive  calm        33
#>  5 negative  staid       30
#>  6 positive  warm        29
#>  7 positive  breeze      25
#>  8 positive  pleasant    24
#>  9 positive  ready       17
#> 10 positive  worked      17
#> # ... with 74 more rows
…
More insight from bigrams!

(tidy_ngram <- journals %>%
    mutate(journal_entry = str_replace_all(journal_entry, "south west", "southwest")) %>%
    mutate(journal_entry = str_replace_all(journal_entry, "north west", "northwest")) %>%
    mutate(journal_entry = str_replace_all(journal_entry, "south east", "southeast")) %>%
    mutate(journal_entry = str_replace_all(journal_entry, "north east", "northeast")) %>%
    unnest_tokens(bigram, journal_entry, token = "ngrams", n = 2) %>% 
    drop_na(bigram) %>%
    select(journal, bigram, date_mdy))
#> # A tibble: 11,467 x 3
#>    journal bigram       date_mdy  
#>      <dbl> <chr>        <chr>     
#>  1       1 was married  12/23/1871
#>  2       1 married at   12/23/1871
#>  3       1 at home      12/23/1871
#>  4       1 home in      12/23/1871
#>  5       1 in evening   12/23/1871
#>  6       1 evening by   12/23/1871
#>  7       1 by william   12/23/1871
#>  8       1 william rand 12/23/1871
#>  9       1 rand esqr    12/23/1871
#> 10       1 went to      12/24/1871
#> # ... with 11,457 more rows

N-grams… and beyond! 🚀

tidy_ngram %>%
    count(bigram, sort = TRUE)
#> # A tibble: 5,522 x 2
#>    bigram             n
#>    <chr>          <int>
#>  1 the wind         501
#>  2 went to          149
#>  3 in shop          110
#>  4 work in          108
#>  5 in the            99
#>  6 wind north        71
#>  7 in forenoon       55
#>  8 wind southerly    54
#>  9 letter to         53
#> 10 wrote letter      53
#> # ... with 5,512 more rows
…
No ☹️

N-grams… and beyond! 🚀

bigram_counts <- tidy_ngram %>%
    separate(bigram, c("word1", "word2"), sep = " ") %>%
    filter(!word1 %in% stop_words$word,
           !word2 %in% stop_words$word) %>%
    count(word1, word2, sort = TRUE)

So many wind directions…! 🚀

bigram_counts
#> # A tibble: 1,930 x 3
#>    word1 word2         n
#>    <chr> <chr>     <int>
#>  1 wind  north        71
#>  2 wind  southerly    54
#>  3 wrote letter       53
#>  4 north west         48
#>  5 wind  south        47
#>  6 reed  letter       36
#>  7 wind  n.w          33
#>  8 south west         32
#>  9 wind  easterly     32
#> 10 wind  northerly    26
#> # ... with 1,920 more rows
…
Removing wind

bigram_counts %>%
    filter(word1 != "wind" & word1 != "north" & word1 != "south")
#> # A tibble: 1,826 x 3
#>    word1   word2         n
#>    <chr>   <chr>     <int>
#>  1 wrote   letter       53
#>  2 reed    letter       36
#>  3 lbs     lobsters     24
#>  4 cc      burrill      20
#>  5 cutting wood         19
#>  6 thomas  smallidge    14
#>  7 letter  home         12
#>  8 supper  lodging      12
#>  9 capt    thomas       10
#> 10 dr      johnson      10
#> # ... with 1,816 more rows
…
