…
## Exploring a subset using `select`



::: {.cell hash='01-fb-tidydata_cache/revealjs/unnamed-chunk-7_e90094aef0a0b448968a1a55a4aae1c5'}

```{.r .cell-code}

(journals_sub <- journals %>%
    select(date_mdy, journal_entry, location))
#> # A tibble: 3,951 × 3
#>    date_mdy   journal_entry                                             location
#>    <chr>      <chr>                                                     <chr>   
#>  1 12/23/1871 Was married at home in evening by William Rand Esqr.      home    
#>  2 12/24/1871 Went to meeting.                                          NA      
#>  3 12/25/1871 Shooting match all day in the evening to Christmas tree … hall    
#>  4 12/26/1871 About home at work fobbing.                               home    
#>  5 12/27/1871 Work about home reed letter from N. H. Higgins Ins agt.   home    
#>  6 12/28/1871 Work about home.                                          home    
#>  7 12/29/1871 To work in shop.                                          shop    
#>  8 12/30/1871 To work in shop.                                          shop    
#>  9 12/31/1871 Went to meeting.                                          NA      
#> 10 1/1/1872   Work in shop.                                             shop    
#> # ℹ 3,941 more rows
```
…
## Creating date variables using `lubridate`


::: {.cell hash='01-fb-tidydata_cache/revealjs/unnamed-chunk-8_1693ebe88732b63adb39c876e0e39035'}

```{.r .cell-code}
library(lubridate)
(journals_sub <- journals_sub %>%
    mutate(date_mdy = mdy(date_mdy),
           year = year(date_mdy),
           month = month(date_mdy)))
#> # A tibble: 3,951 × 5
#>    date_mdy   journal_entry                                 location  year month
#>    <date>     <chr>                                         <chr>    <dbl> <dbl>
#>  1 1871-12-23 Was married at home in evening by William Ra… home      1871    12
#>  2 1871-12-24 Went to meeting.                              NA        1871    12
#>  3 1871-12-25 Shooting match all day in the evening to Chr… hall      1871    12
#>  4 1871-12-26 About home at work fobbing.                   home      1871    12
#>  5 1871-12-27 Work about home reed letter from N. H. Higgi… home      1871    12
#>  6 1871-12-28 Work about home.                              home      1871    12
#>  7 1871-12-29 To work in shop.                              shop      1871    12
#>  8 1871-12-30 To work in shop.                              shop      1871    12
#>  9 1871-12-31 Went to meeting.                              NA        1871    12
#> 10 1872-01-01 Work in shop.                                 shop      1872     1
#> # ℹ 3,941 more rows
```
…
## Where did Freeland go?


::: {.cell hash='01-fb-tidydata_cache/revealjs/unnamed-chunk-11_fd1b4d64087e9c3a123197951554e3c4'}

```{.r .cell-code}
journals_sub %>%
    filter(is.na(location) == FALSE, location != "NA") %>%
    separate_rows(location, sep = ", ") %>%
    count(location) %>%
    arrange(desc(n))
#> # A tibble: 343 × 2
#>    location            n
#>    <chr>           <int>
#>  1 Winter Harbor    1000
#>  2 West Gouldsboro   105
#>  3 home               55
#>  4 Ellsworth          51
#>  5 Rockland           45
#>  6 shop               45
#>  7 Bar Harbor         37
#>  8 Sullivan           34
#>  9 Calais             32
#> 10 factory            32
#> # ℹ 333 more rows
```
…
